…
## Examples

### municipality

`municipality`は、日本にある行政区域名とその市区町村コードの一覧です。

総務省では、都道府県コード（JIS X 0401）と市区町村コード（JIS X
0402）とを組み合わせた数字を[全国地方公共団体コード](https://www.soumu.go.jp/denshijiti/code.html)として定めています（このほかに「一部事務組合等コード」も全国地方公共団体コードに含まれますが、そちらはこのパッケージでは探せません）。

``` r
jisx0402::municipality
#> # A tibble: 4,542 × 6
#>    pref_code city_code name           kana_name$half_upper start_date end_date
#>    <chr>     <chr>     <chr>          <chr>                <date>     <date>  
#>  1 01        100       札幌市         ｻﾂﾎﾟﾛｼ               1972-04-01 NA      
#>  2 01        101       札幌市　中央区 ｻﾂﾎﾟﾛｼ ﾁﾕｳｵｳｸ        1972-04-01 NA      
#>  3 01        102       札幌市　北区   ｻﾂﾎﾟﾛｼ ｷﾀｸ           1972-04-01 NA      
#>  4 01        103       札幌市　東区   ｻﾂﾎﾟﾛｼ ﾋｶﾞｼｸ         1972-04-01 NA      
#>  5 01        104       札幌市　白石区 ｻﾂﾎﾟﾛｼ ｼﾛｲｼｸ         1972-04-01 NA      
#>  6 01        105       札幌市　豊平区 ｻﾂﾎﾟﾛｼ ﾄﾖﾋﾗｸ         1972-04-01 NA      
#>  7 01        106       札幌市　南区   ｻﾂﾎﾟﾛｼ ﾐﾅﾐｸ          1972-04-01 NA      
#>  8 01        107       札幌市　西区   ｻﾂﾎﾟﾛｼ ﾆｼｸ           1972-04-01 NA      
#>  9 01        108       札幌市　厚別区 ｻﾂﾎﾟﾛｼ ｱﾂﾍﾞﾂｸ        1989-11-06 NA      
#> 10 01        109       札幌市　手稲区 ｻﾂﾎﾟﾛｼ ﾃｲﾈｸ          1989-11-06 NA      
#> # ℹ 4,532 more rows
#> # ℹ 1 more variable: kana_name$full_lower <chr>
```

全国地方公共団体コードは、５～６桁からなる数字の組です。６桁目はチェックデジットで、実際のコードとしては`pref_code`と`city_code`を連結した５桁になります。

``` r
jisx0402::municipality |>
  dplyr::filter(
    pref_code == "05",
    is.na(lubridate::as_date(end_date)) # 現存する自治体
  ) |>
  dplyr::mutate(
    muni_code = paste0(pref_code, city_code),
    muni_code_with_cd = paste0(muni_code, jisx0402::check_digit(muni_code))
  ) |>
  dplyr::select(muni_code, muni_code_with_cd, name)
#> # A tibble: 31 × 3
#>    muni_code muni_code_with_cd name      
#>    <chr>     <chr>             <chr>     
#>  1 05201     052019            秋田市    
#>  2 05202     052027            能代市    
#>  3 05203     052035            横手市    
#>  4 05204     052043            大館市    
#>  5 05206     052060            男鹿市    
#>  6 05207     052078            湯沢市    
#>  7 05209     052094            鹿角市    
#>  8 05210     052108            由利本荘市
#>  9 05211     052116            潟上市    
#> 10 05212     052124            大仙市    
#> # ℹ 21 more rows
```

なお、この一覧中には含まれていませんが、行政区域としての都道府県そのものは`city_code`を`000`として同様の方法で表示します。

### jpprefs

`jpprefs`は都道府県コードの一覧です。英語表記などがほしい場合には`zipangu::jpnprefs`を利用してください。

``` r
jisx0402::jpprefs
#> # A tibble: 47 × 2
#>    pref_code name  
#>    <chr>     <chr> 
#>  1 01        北海道
#>  2 02        青森県
#>  3 03        岩手県
#>  4 04        宮城県
#>  5 05        秋田県
#>  6 06        山形県
#>  7 07        福島県
#>  8 08        茨城県
#>  9 09        栃木県
#> 10 10        群馬県
#> # ℹ 37 more rows
```

### jpaddresses

`jpaddresses`は、Geoloniaが公開している[住所データ](https://github.com/geolonia/japanese-addresses)を元に加工したデータセットです。

``` r
jisx0402::jpaddresses
#> # A tibble: 277,656 × 6
#>    muni_code address_name   address_name_kana address_name_en   lat   lng
#>    <chr>     <chr>          <chr>             <chr>           <dbl> <dbl>
#>  1 01101     旭ケ丘一丁目   アサヒガオカ 1    ASAHIGAOKA 1     43.0  141.
#>  2 01101     旭ケ丘二丁目   アサヒガオカ 2    ASAHIGAOKA 2     43.0  141.
#>  3 01101     旭ケ丘三丁目   アサヒガオカ 3    ASAHIGAOKA 3     43.0  141.
#>  4 01101     旭ケ丘四丁目   アサヒガオカ 4    ASAHIGAOKA 4     43.0  141.
#>  5 01101     旭ケ丘五丁目   アサヒガオカ 5    ASAHIGAOKA 5     43.0  141.
#>  6 01101     旭ケ丘六丁目   アサヒガオカ 6    ASAHIGAOKA 6     43.0  141.
#>  7 01101     大通西一丁目   オオドオリニシ 1  ODORINISHI 1     43.1  141.
#>  8 01101     大通西十丁目   オオドオリニシ 10 ODORINISHI 10    43.1  141.
#>  9 01101     大通西十一丁目 オオドオリニシ 11 ODORINISHI 11    43.1  141.
#> 10 01101     大通西十二丁目 オオドオリニシ 12 ODORINISHI 12    43.1  141.
#> # ℹ 277,646 more rows
```
…
